# y, x, target
2.317900115020475660e+00,-6.490052688926137847e-01,1.658793994538777794e-01
1.110841903156480015e+00,-1.358758791416057932e+00,9.848221219491350154e-02
-1.098645018877719703e+00,-1.372005317472340113e+00,3.450015933927690903e-01
-1.151790917857107077e+00,-1.370933961355596864e+00,3.571481883023183146e-01
-1.447388186531113785e+00,-1.342142567877989467e+00,4.139805805747699408e-01
-1.943329646827460788e+00,-1.283357001721196156e+00,4.500873834438591792e-01
-1.957470768271051265e+00,-1.296705888059122680e+00,4.531192634558052212e-01
-2.005298217592998533e+00,-1.428671140579371279e+00,4.804393526934712666e-01
-2.036449320894998305e+00,-1.595713519475640663e+00,5.082161997536595033e-01
-2.052331868309852592e+00,-1.740020455670386657e+00,5.243954308592813085e-01
-2.069041279556865121e+00,-1.864910493173383310e+00,5.311293083703935158e-01
-2.084877783224828196e+00,-1.939250278171000819e+00,5.314182055498428703e-01
-2.087030982841533877e+00,-1.942257527196392219e+00,5.312950801333687911e-01
-2.087619384206777173e+00,-1.939167693020164895e+00,5.312770185989376115e-01
-2.088903788583875265e+00,-1.946483995654498145e+00,5.311724020922835576e-01
-2.087721274657218018e+00,-1.942441431067265523e+00,5.312581981347943572e-01
-2.089340641122265030e+00,-1.946109210770661235e+00,5.311517711544767595e-01
-2.086033977589905497e+00,-1.940927705064269926e+00,5.313526341765020256e-01
-2.090284449137861600e+00,-1.952315543192787217e+00,5.310513795165202611e-01
-2.080045267992504776e+00,-1.941009155594145774e+00,5.316517542526875140e-01
-2.053020538473013357e+00,-1.941696474191330513e+00,5.327791214156488708e-01
-2.013761692867134023e+00,-1.960298558331536878e+00,5.335983318781151175e-01
-1.969165454155147099e+00,-1.973132666215356545e+00,5.335670640677854237e-01
-1.979779839860636770e+00,-1.958825302211917307e+00,5.338540379441131245e-01
-1.961782044893063404e+00,-1.964199333454110796e+00,5.336653011610242858e-01
-1.961347451184897395e+00,-1.969346366190850794e+00,5.335711504867175492e-01
-1.971991392072049987e+00,-1.959459954223511602e+00,5.338181587206176637e-01
-1.945825626210710979e+00,-1.986116781566692246e+00,5.329617959079816503e-01
-1.939320606062064911e+00,-1.953228564048631100e+00,5.334532812703863813e-01
-1.978122954397600886e+00,-1.985441005485570010e+00,5.333242356489363845e-01
-1.974770536603474902e+00,-1.978921982745242225e+00,5.334729219590597094e-01
-1.961561205583899348e+00,-1.970693107646192210e+00,5.335479675581501491e-01
-1.965722516167212053e+00,-1.964757158730563447e+00,5.336940365743165771e-01
-1.964592152923034796e+00,-1.953482439112291580e+00,5.338388603521359022e-01
-1.971406394736797907e+00,-1.996978662487972400e+00,5.329620930350460473e-01
-1.945163825548672509e+00,-1.964515884911490762e+00,5.334155321204925304e-01
-1.980943632108486341e+00,-1.962832333840007770e+00,5.337978045417699491e-01
-1.957409860185697958e+00,-2.002022169212046343e+00,5.326622396201550202e-01
-1.965866004206601403e+00,-1.960854123229450963e+00,5.337556482574831174e-01
-1.962753059433433034e+00,-1.961111693019868873e+00,5.337229708305004650e-01
-1.974234046875400495e+00,-1.961349850643641091e+00,5.338021612016764506e-01
-1.974589691829298221e+00,-1.986223293891895558e+00,5.332913236580169025e-01
-1.987922119388771947e+00,-1.933455114479170067e+00,5.340375388590594685e-01
-1.954622936800709532e+00,-1.924017489196139241e+00,5.338477797869483066e-01
-1.950273667195170368e+00,-1.935134387045651660e+00,5.337839725411233083e-01
-1.953779012741993171e+00,-1.938492276654433244e+00,5.338259958690325657e-01
-1.950322801369771319e+00,-1.946545934875586248e+00,5.337249675761821521e-01
-1.978837137507196697e+00,-1.948624488601382598e+00,5.339651234476557873e-01
-1.976527954499315065e+00,-1.964808074520415282e+00,5.337571852489126911e-01
-1.969453351890732229e+00,-1.950595763673655725e+00,5.339069506567050150e-01
-1.941569504602348673e+00,-1.951134465148199659e+00,5.335230792564573665e-01
-1.976940723381735765e+00,-1.945212681971610902e+00,5.339873650119955073e-01
-1.957857532925899591e+00,-1.955488643039418051e+00,5.337431376248693571e-01
