# y, x, target
-3.981030257992293819e+00,-2.830192936225585321e+00,5.686680782645287674e-02
-8.225292990317010222e-01,3.806165436724862516e+00,2.074160994223633037e-01
5.222462208533587003e-01,-4.808388017747739163e+00,1.540251681828851051e-03
-8.600782832061337757e-01,4.992089644287540651e+00,1.011660270012438301e-01
-8.223663151335168786e-01,3.801925326161101459e+00,2.078191037723967904e-01
-8.218375968518317753e-01,3.781845529925768723e+00,2.097164634053809429e-01
-8.192604868982401589e-01,3.692359089184970244e+00,2.181259314901428381e-01
-8.124622443027992302e-01,3.449226337453158653e+00,2.402660966856669245e-01
-8.052349582252152915e-01,3.102421390445199822e+00,2.687100675166556596e-01
-7.910312597623543329e-01,2.711872601977553643e+00,2.943291176327104686e-01
-7.826699696270392748e-01,2.332657191855229684e+00,3.097358606116610846e-01
-7.722065994228513031e-01,2.054810928954950544e+00,3.145458914329001820e-01
-7.613257515164646438e-01,1.922766447160737524e+00,3.150640343125930554e-01
-7.554331627711698971e-01,1.906338856229688794e+00,3.152797381118538911e-01
-7.514537704405097607e-01,1.897597896054266320e+00,3.154313996813472021e-01
-7.373607162891293587e-01,1.888875944945323848e+00,3.161228574010653825e-01
-5.761670756349291933e-01,1.887938563875529940e+00,3.246642738816004625e-01
-1.334942085029835190e-01,1.884293279036945101e+00,3.464301523516213344e-01
2.244827732235064599e-01,1.910239028306089937e+00,3.621283272445749435e-01
6.123313114015846992e-01,1.935161811469330084e+00,3.764488895468688368e-01
1.027561784274199086e+00,1.953844249293802182e+00,3.882511530892694962e-01
1.394096583532519640e+00,1.963583958966246046e+00,3.953723026761108428e-01
1.700924142423521079e+00,1.969072580681610063e+00,3.988359939743977289e-01
1.933761791438417754e+00,1.961358113882772480e+00,3.998706027848662470e-01
2.008319744548746399e+00,1.960400537642751573e+00,3.999208004714752129e-01
2.015520318126343469e+00,1.957884611564232324e+00,3.999083767291936042e-01
2.013527985744128390e+00,1.981524355323774023e+00,3.999807027931820969e-01
2.028017655431499033e+00,1.951951024698127535e+00,3.998748329099286458e-01
2.051347345361847374e+00,1.951676099902169170e+00,3.998503666291166603e-01
2.032104475395227539e+00,1.971515608916036832e+00,3.999466072353047297e-01
2.014314499462093622e+00,1.967820030139458609e+00,3.999457252547829467e-01
2.026247368388931491e+00,1.989483362629377083e+00,3.999859115275933852e-01
2.034828964631030246e+00,1.971249749218029201e+00,3.999435667932579874e-01
1.999085117229064679e+00,1.997063152549473308e+00,3.999996154249054192e-01
2.027386549751840406e+00,1.989590041286213307e+00,3.999852591736451357e-01
2.034257340233659228e+00,1.983668938092896461e+00,3.999720485706279027e-01
2.027400345210313759e+00,1.988125876028851158e+00,3.999836187159587775e-01
2.021756784754283665e+00,1.989606450300844820e+00,3.999887356470099298e-01
2.024829146582829864e+00,1.987118954435469931e+00,3.999840517925321026e-01
2.029629688378045138e+00,1.965574794684562976e+00,3.999298347444630863e-01
2.025889717721253813e+00,2.004486246773637959e+00,3.999906651337215013e-01
2.029552950309017945e+00,1.981152352213024770e+00,3.999713760017140074e-01
2.042487963676951956e+00,2.004844999017054263e+00,3.999763081849628255e-01
2.028243776897895145e+00,1.994575952338527358e+00,3.999886091000802169e-01
2.019009443516374347e+00,2.007072346596926238e+00,3.999930328532184665e-01
2.022507045389386526e+00,1.973120297252085820e+00,3.999576014688526193e-01
2.042323827836991512e+00,1.994142674758140110e+00,3.999759425696346460e-01
2.027882870152097006e+00,1.987632468274361131e+00,3.999826872614203332e-01
2.036324524448605899e+00,1.999966105685059503e+00,3.999835555268534959e-01
2.018800468636467116e+00,2.002876106162708503e+00,3.999952197946169963e-01
2.032472973534509286e+00,1.997253896804762618e+00,3.999864919334169544e-01
2.022875170345401763e+00,1.984404042822255576e+00,3.999813524574163393e-01
2.021681056218013417e+00,1.978456565745259077e+00,3.999709754370665005e-01
