# y, x, target
1.050800652631411758e+00,-2.289161552316014703e+00,4.357337535068340345e-02
-4.302094715808719272e+00,-2.967960783121894597e+00,2.740326399483952735e-02
8.733447672568868114e-01,-7.156739877699136443e-01,1.564551194969238945e-01
8.733447677264832842e-01,-7.156739883764646759e-01,1.564551194369927511e-01
8.733447677955625821e-01,-7.156739891310626156e-01,1.564551193621142589e-01
8.733447656877095788e-01,-7.156739926456561207e-01,1.564551190118553536e-01
8.733447611895371887e-01,-7.156739936225372523e-01,1.564551189120745589e-01
8.733447614849340068e-01,-7.156739978037802707e-01,1.564551184971167963e-01
8.733447623631732659e-01,-7.156739975034838164e-01,1.564551185274768441e-01
8.733447645535648007e-01,-7.156739905796963841e-01,1.564551192162738913e-01
8.733447599568171515e-01,-7.156739990908909110e-01,1.564551183683764446e-01
8.522635400097282599e-01,-7.134354653623482534e-01,1.566672338577520529e-01
8.618816425067959974e-01,-6.568373631700262782e-01,1.623359959723095214e-01
8.166206505727860998e-01,-2.980228155523085842e-01,2.000903487507752765e-01
7.595297694459777205e-01,1.561563650398865022e-01,2.503240869184414352e-01
6.994759438366457971e-01,6.603563688610405435e-01,3.035454359825446313e-01
6.365103966363223620e-01,1.156124694271299935e+00,3.453849738561403093e-01
6.043409930714203071e-01,1.548741275744665025e+00,3.669494131182597929e-01
5.742208159892306929e-01,1.877931673411226576e+00,3.746910682053797292e-01
5.633960192969512670e-01,2.047583602190296670e+00,3.749154853867317505e-01
5.637596070555719319e-01,2.052194263344863323e+00,3.749060632424198181e-01
5.652605346871830694e-01,2.052768594981403627e+00,3.749536942522608829e-01
5.654059565622143735e-01,2.047962909913888740e+00,3.749813700939045868e-01
5.650739733730660852e-01,2.050487937327342802e+00,3.749585078357798307e-01
5.692430626926665571e-01,2.038939828913977070e+00,3.751471348626757019e-01
5.678061170903547783e-01,2.055212378964173414e+00,3.750267631418280345e-01
5.617887246868162876e-01,2.057721690805415005e+00,3.748111446497896515e-01
5.800408810845416596e-01,2.060139457031189281e+00,3.754090203595879527e-01
6.800515918709710839e-01,2.077878984435586940e+00,3.785202523787496443e-01
1.009515827302034818e+00,2.113657761324813311e+00,3.872980858047657682e-01
1.322746906281672352e+00,2.151210958423180220e+00,3.931825009180187624e-01
1.574406204375769391e+00,2.194885799947325467e+00,3.958585669659391293e-01
1.776839476671061568e+00,2.238872676199129330e+00,3.965395899537439428e-01
1.846035360485852372e+00,2.260703396722041347e+00,3.963224185607589489e-01
1.854873741216706229e+00,2.256088749516306002e+00,3.964733308404645995e-01
1.843421910794028840e+00,2.275920118355548638e+00,3.959080531099787859e-01
1.837768826817266721e+00,2.239115163684735954e+00,3.968249185142517788e-01
1.877987506965770548e+00,2.185849327973570677e+00,3.980915233737887249e-01
1.977528713037181474e+00,2.069391725543227256e+00,3.997530502425321597e-01
2.123188769703822310e+00,1.997372714225535972e+00,3.998100410689947037e-01
2.138882942100375217e+00,1.998434887999590792e+00,3.997588765258210386e-01
2.161828572114626645e+00,1.994554390742766969e+00,3.996713260240825072e-01
2.129933174721304390e+00,1.974302110745899341e+00,3.997560592471250951e-01
2.148663715423218434e+00,1.989169151056319862e+00,3.997180049151234926e-01
2.134879930605687814e+00,1.980678860783866568e+00,3.997540380212289413e-01
2.147275075462734328e+00,1.997477546909711910e+00,3.997286807888811300e-01
2.146031455006316424e+00,1.984654582051346150e+00,3.997217909053484286e-01
2.118628962488293688e+00,1.987566801900024771e+00,3.998164390761342335e-01
2.175045722494035161e+00,1.994067557259983303e+00,3.996154409188679701e-01
2.119437232276228933e+00,1.984068513389567912e+00,3.998090762510865259e-01
2.115412592275546899e+00,1.982224287518256078e+00,3.998177797235117903e-01
2.135344100243277587e+00,1.986626000471596543e+00,3.997621864570880534e-01
2.153753633126096467e+00,1.994759749188461662e+00,3.997032655827638670e-01
