# y, x, target
4.292360492729841326e+00,3.872568096571258778e+00,2.189699471832652899e-01
-2.379168374265441255e+00,2.437273881484215643e+00,2.145180014608540631e-01
-4.178198781873081913e+00,2.963149295796130289e-01,8.776158674291398287e-02
-5.000000000000000000e+00,5.000000000000000000e+00,2.808440800612239940e-02
5.000000000000000000e+00,-5.000000000000000000e+00,6.604819701286463417e-04
9.591190225184049734e-01,2.956727243006834538e+00,3.448782534571157021e-01
-1.416843108315398947e+00,-5.000000000000000000e+00,5.293484156135768587e-03
1.972219566570361016e+00,7.112508513678288402e-01,3.250066819356667858e-01
9.964750004144615758e-01,5.000000000000000000e+00,1.258378088406718331e-01
1.760379034262761655e+00,2.114928729572295829e+00,3.986243026321039107e-01
5.000000000000000000e+00,9.606310937821450624e-01,2.637966606887200416e-01
-5.000000000000000000e+00,-5.000000000000000000e+00,2.509361546884271042e-04
2.741398250192248476e+00,2.143548872650106851e+00,3.921763202487875688e-01
2.197170158025171904e+00,2.116638537558972910e+00,3.988355356230094406e-01
2.219989060454788721e+00,2.113907218541681843e+00,3.987482943946284997e-01
2.216496265392579268e+00,2.124011374834449128e+00,3.986474818513898177e-01
2.159551770595332876e+00,2.101551944901761004e+00,3.991670385075860028e-01
2.137921638473029518e+00,2.093106466196258175e+00,3.993293644489550043e-01
2.162131882997436527e+00,2.100432769774781327e+00,3.991679645204803673e-01
2.139595871453163767e+00,2.091493779858939916e+00,3.993384265778367470e-01
2.167412777979569327e+00,2.105969769273090542e+00,3.990892393820215100e-01
2.147597905656787987e+00,2.091798865976865152e+00,3.993069565289396050e-01
2.146142830357934628e+00,2.080204541225022297e+00,3.994118452971072153e-01
2.129386494667939722e+00,2.080970579491093986e+00,3.994633118233738567e-01
2.073936351820488966e+00,2.076349402356242102e+00,3.996403985738216091e-01
-5.000000000000000000e+00,2.463834240074120885e+00,8.421094319909316894e-02
2.248146308306453900e+00,2.111157013677598560e+00,3.986149150901698857e-01
1.969995997743158256e+00,2.050048298016086790e+00,3.998635805212016892e-01
1.933344186079950511e+00,2.016499562258879941e+00,3.999309253362401950e-01
1.910635752755483807e+00,2.024262088842907481e+00,3.998708365182914726e-01
1.910575985466107518e+00,2.028895302017335922e+00,3.998583913595559203e-01
1.949731238783883214e+00,2.023793414679611935e+00,3.999401737569339699e-01
1.922909008178712575e+00,2.025843642866523631e+00,3.998924008777214878e-01
1.932429735567699147e+00,2.022604010097510674e+00,3.999174568948680175e-01
1.949597338371074073e+00,2.020660297668392502e+00,3.999469690575537251e-01
1.912917491179780605e+00,2.019809043095196266e+00,3.998856777585501621e-01
1.927645663069535331e+00,2.018952069038951969e+00,3.999166797440361076e-01
1.935219936716615408e+00,2.013884374009100142e+00,3.999379791406936779e-01
1.975646445791681138e+00,2.051625614582862411e+00,3.998594012047249624e-01
1.928663045262620557e+00,2.017887104132926268e+00,3.999204679750863467e-01
1.947426176429186029e+00,2.023687284441501255e+00,3.999374634947996388e-01
1.987936582576513622e+00,2.039512712595977106e+00,3.999201765511556372e-01
1.939918167854784770e+00,2.026203581473050797e+00,3.999206179697688546e-01
1.942289020054120741e+00,2.013834083314413270e+00,3.999488691632500093e-01
1.956742401258628306e+00,2.033053939087930750e+00,3.999220477403672702e-01
1.978963516182523641e+00,2.018626311369090764e+00,3.999771788001219019e-01
1.998717628923252221e+00,2.020539593576509141e+00,3.999789383411506694e-01
1.938724387458458764e+00,2.013738865408517320e+00,3.999437003097296994e-01
1.993897084603483805e+00,2.035533273243737007e+00,3.999364587964765461e-01
1.963970939988337605e+00,2.034257448207540619e+00,3.999251588082750608e-01
1.992724489482143646e+00,2.043621636578132339e+00,3.999042560564946003e-01
2.021752469408024666e+00,2.029143151661236821e+00,3.999516680101717903e-01
2.004511387816472201e+00,2.039223092650825464e+00,3.999228776876206926e-01
