\relax 
\@writefile{toc}{\contentsline {section}{Goal}{2}}
\@writefile{toc}{\contentsline {section}{Simplified Model}{2}}
\@writefile{toc}{\contentsline {section}{Note To Grader}{2}}
\@writefile{toc}{\contentsline {section}{Task 1}{2}}
\@writefile{toc}{\contentsline {section}{Task 2}{4}}
\@writefile{toc}{\contentsline {section}{Task 3}{5}}
\@writefile{toc}{\contentsline {section}{Task 4}{5}}
\@writefile{toc}{\contentsline {section}{Task 5}{6}}
