# y, x, target
2.627533609570813056e+00,-4.940963886118288073e+00,9.580939512128880007e-04
4.749225204969052427e+00,2.289200653742246239e+00,3.125657802980136846e-01
4.794089565793795416e+00,-3.031598884766975033e+00,1.323512613948633378e-02
4.457020619016034857e+00,3.145669900941726382e+00,2.811082732838127707e-01
4.862725367771497886e+00,1.938742092439068587e+00,3.094806559185953598e-01
3.842005121572938720e+00,1.507663826266961049e+00,3.490218295529759485e-01
3.416593743039769926e+00,1.283677925471045311e+00,3.523462399184237315e-01
3.308260321027433726e+00,1.267198912717790726e+00,3.545516699223377755e-01
3.141402107207605265e+00,1.224868145730661384e+00,3.562555910678112392e-01
2.973044031615868832e+00,1.183558189842265129e+00,3.572923920899597761e-01
2.864492673817877311e+00,1.164228651086191668e+00,3.580940941407992351e-01
2.782114557628101892e+00,1.218575225677763996e+00,3.635878048451839928e-01
2.411540381174719361e+00,1.498002194329686176e+00,3.855503603173239813e-01
1.986562518242209530e+00,1.881676979948239570e+00,3.992984368366047088e-01
1.728186765373151523e+00,2.100167444891638091e+00,3.985774369261668726e-01
1.816358125536012169e+00,2.075931555790084371e+00,3.992908800525499791e-01
1.809494201985037520e+00,2.093422160832933976e+00,3.991110298575258342e-01
1.799175518803190599e+00,2.074549802071151916e+00,3.992188405117330641e-01
1.798121060394589854e+00,2.083383500521177378e+00,3.991439265958023341e-01
1.817187608846294822e+00,2.075019695506744810e+00,3.993015432212345117e-01
1.787121987990736294e+00,2.062362663360801207e+00,3.992399053388386854e-01
1.810169037519200330e+00,2.073479069431081179e+00,3.992803300085563944e-01
1.814582188243045735e+00,2.087258291616497452e+00,3.991904545373710089e-01
1.793853267481812175e+00,2.077562546818159106e+00,3.991689531662444557e-01
1.796961311148299600e+00,2.072896316713070064e+00,3.992198519654646116e-01
1.810002229370487825e+00,2.083138541932560983e+00,3.992040373386940844e-01
1.840490489006358921e+00,2.083299815861915150e+00,3.993356435270764559e-01
1.789760210742647573e+00,2.086053343852301900e+00,3.990783851601382715e-01
1.814949532420814471e+00,2.077429538387615793e+00,3.992729339383415677e-01
1.795419772419275306e+00,2.072599970694974481e+00,3.992141651350966103e-01
1.829213190957203583e+00,2.083038292714801898e+00,3.992913375538110765e-01
1.819017371820564444e+00,2.080248285810158304e+00,3.992693276070264363e-01
1.838373556014757604e+00,2.074807666973203624e+00,3.993941895234784378e-01
1.869601566087595979e+00,2.081843747147709589e+00,3.994529751613382640e-01
1.891191059688127396e+00,2.114662513908295516e+00,3.991954975855405152e-01
1.747746661192111084e+00,2.061404817195253258e+00,3.990174014508920397e-01
1.884792909984348341e+00,2.106429025046131720e+00,3.992684621341923701e-01
1.868451947598767759e+00,2.102179997341036000e+00,3.992623947200145684e-01
1.719198295048815162e+00,2.067887232060337865e+00,3.987859193044264727e-01
1.878300748057007752e+00,2.117811663667108490e+00,3.991219084244052029e-01
1.904728928506200347e+00,2.109593448717690833e+00,3.992866960182294145e-01
1.870478772389068567e+00,2.116682876845522365e+00,3.991106071695232904e-01
1.886279862818584618e+00,2.129214684895258891e+00,3.990048171720179671e-01
1.699094236822890736e+00,2.084994397316312309e+00,3.985099041000217945e-01
1.907271925762677789e+00,2.114158645236869916e+00,3.992416798971327729e-01
1.918957861176044943e+00,2.118039329153181605e+00,3.992220436140183626e-01
1.898236993083733282e+00,2.113733916631926668e+00,3.992245891096958266e-01
1.907537674618372314e+00,2.120607547735931853e+00,3.991667438562138126e-01
1.891438103609917931e+00,2.131582148560273282e+00,3.989883180836303334e-01
1.905944623878522037e+00,2.112057620878118769e+00,3.992623072802672368e-01
1.895809349508283503e+00,2.123213972105491010e+00,3.991062712225564857e-01
1.901517621906807065e+00,2.121307526668886112e+00,3.991439576269816270e-01
1.726885698662711022e+00,2.089495896863220459e+00,3.986694621990982679e-01
