# y, x, target
-1.022674464209155865e+00,-3.604967317350307177e+00,9.147082735120208585e-02
1.711588383590375351e+00,-4.312563977158027306e+00,2.774765667408156736e-03
8.720812609308445928e-01,-4.894846927473573750e+00,1.131858107261016601e-03
-3.508022317835219006e+00,-1.124695468722513247e+00,1.550780183547309232e-01
-3.613724470550585988e+00,-7.570443461835068000e-01,1.205795588613752106e-01
-3.259949283508062123e+00,-1.803775822385293770e+00,2.493782063341772604e-01
-3.082425015154737657e+00,-2.170442746860163030e+00,2.946013833339922727e-01
-2.893703670426654995e+00,-2.504937473292395467e+00,3.102090489339088819e-01
-3.979197832157920889e+00,2.494268762228068592e+00,1.269428489645741398e-01
-2.864644091096117062e+00,-2.551528027521615893e+00,3.098431952697972003e-01
-2.866743036302777270e+00,-2.547212624352761523e+00,3.100681882647374765e-01
-2.866842616649620368e+00,-2.546887733328617287e+00,3.101000992433333159e-01
-2.867236663758921278e+00,-2.546264328378705866e+00,3.101083064816202994e-01
-2.867176082966119033e+00,-2.546247677353022709e+00,3.101270698474082321e-01
-2.867127415172265881e+00,-2.546235955578984189e+00,3.101418490144576268e-01
-2.867269802665771472e+00,-2.546102543342315006e+00,3.101284419203849674e-01
-2.867227240504083952e+00,-2.546027487576167925e+00,3.101528942852976867e-01
-2.867206040905233344e+00,-2.546407397534613537e+00,3.100908384525114525e-01
-2.867141509586701442e+00,-2.546022296502280735e+00,3.101761811624438869e-01
-2.867104254984654155e+00,-2.545982133552509907e+00,3.101930430698394137e-01
-2.867182294264428943e+00,-2.546130717296493096e+00,3.101462567380196544e-01
-2.867120116147199749e+00,-2.545929319541422764e+00,3.101982991553753899e-01
-2.867151541446879559e+00,-2.545897358829398716e+00,3.101957854920708302e-01
-2.867305782824236093e+00,-2.545690554152001628e+00,3.101923177856096836e-01
-2.867007445846646796e+00,-2.545798672316470945e+00,3.102509276316508524e-01
-3.517700889369714812e+00,-2.932139894288513293e+00,1.097400176664750648e-01
-2.807805982034413894e+00,-2.553177198155615280e+00,3.241667167252155202e-01
-2.604581902031971374e+00,-2.470022579942527940e+00,3.898957295870813522e-01
-2.153434523034571946e+00,-2.248881767502024509e+00,5.035075956821588594e-01
-2.013471089947269643e+00,-2.157344518012267898e+00,5.216768357126640998e-01
-1.933777230810016068e+00,-2.094663517846943268e+00,5.270033031282558289e-01
-1.901113354377570674e+00,-2.053020768435304788e+00,5.287593312991067940e-01
-1.908173478654804578e+00,-2.022723965918368005e+00,5.305987427810561208e-01
-1.932775625166115230e+00,-1.962089797245068601e+00,5.331826274911312114e-01
-1.961556231221694979e+00,-1.918507495461899914e+00,5.339086551192705477e-01
-1.961805953617007603e+00,-1.874316358543015593e+00,5.332173530094712621e-01
-1.975484741306995140e+00,-1.887814979485114009e+00,5.336132972067038072e-01
-1.980999492231298120e+00,-1.904474558496043191e+00,5.338894778629925675e-01
-1.973804599877607480e+00,-1.892468870127062885e+00,5.336948490705322179e-01
-1.976072095829249697e+00,-1.869811766599054348e+00,5.331821758720829418e-01
-1.963234363990546960e+00,-1.892558633440208027e+00,5.336275594120183374e-01
-1.986068948848410898e+00,-1.905826983685323661e+00,5.339013536825708561e-01
-1.974609727174765350e+00,-1.895860951865762978e+00,5.337551322166397272e-01
-1.976258484827884132e+00,-1.885920639468670057e+00,5.335770067571187214e-01
-5.000000000000000000e+00,-5.000000000000000000e+00,2.509361546884271042e-04
-1.987001800614551783e+00,-1.890678251060267989e+00,5.336703027746839689e-01
-1.978875299973329671e+00,-1.876971841116966688e+00,5.333776375920560309e-01
-1.965325473247686361e+00,-1.896875834160361762e+00,5.337169976257224446e-01
-1.973049855819373199e+00,-1.880542899591768347e+00,5.334479829846117127e-01
-1.973864532660509763e+00,-1.892368957867012202e+00,5.336933128008632954e-01
-1.962467305727760625e+00,-1.861628260972466364e+00,5.328569151597219999e-01
-1.960079319206936788e+00,-1.892694697481038801e+00,5.335986314529261865e-01
-1.959173162019538506e+00,-1.900133125089249475e+00,5.337053921426997416e-01
