\relax 
\@writefile{toc}{\contentsline {section}{1a:}{2}}
\@writefile{toc}{\contentsline {section}{1b:}{2}}
\@writefile{toc}{\contentsline {section}{2a}{8}}
\@writefile{toc}{\contentsline {section}{2b}{8}}
\@writefile{toc}{\contentsline {section}{2c}{9}}
