# x, y, target
2.890069322309255284e+00,1.896154937618476310e+00,3.589054162115490887e-01
2.113113169905160404e+00,-2.244187783539290937e+00,2.180282866469359371e-01
-3.107024828029981478e+00,4.061013886339022605e+00,1.236907688543184211e-02
5.000000000000000000e+00,5.000000000000000000e+00,8.527434008116729913e-02
2.893662274155604397e+00,1.880718793839917913e+00,3.539814282564450187e-01
-4.999999998719126815e+00,-5.000000000000000000e+00,-9.533082145823372489e-03
5.000000000000000000e+00,-5.000000000000000000e+00,3.004604913383919843e-02
2.043436725220838301e+00,2.436437782910016558e+00,4.066151157313377951e-01
8.449738996922611101e-01,1.006688916085920482e+00,3.381270292560729640e-01
1.172685790559386376e+00,4.197611650219586821e+00,3.277145160998689577e-01
7.919459655458451763e-01,2.632638063966420638e+00,3.270502869802179857e-01
2.589975969727504435e+00,3.442105383360571480e+00,3.414881133191357554e-01
2.209356207971878927e+00,4.128809240537137382e-01,3.697965495159277194e-01
1.877233955493798678e+00,1.568809680198383072e+00,4.007073570152758779e-01
1.875567645411264195e+00,2.182161770416262137e+00,3.877500138135560048e-01
4.523177204879846869e+00,1.190034029236475277e-02,1.610246277776984647e-01
1.710361170486548898e+00,3.180254678576300620e+00,3.671635376340094403e-01
9.255645155002545366e-01,-5.271689901753440211e-01,2.978816024074849023e-01
1.708295652040740853e+00,8.833079238260896915e-01,3.809094649770977670e-01
2.360354687483717129e+00,1.210766910918450456e+00,3.916722113265277971e-01
2.465140199880724303e+00,2.584541872982822674e+00,3.905594791456346027e-01
2.207020392973687795e+00,1.931072388094884795e+00,3.967567704550832852e-01
2.173287079082117934e+00,2.126143405733309066e+00,4.043989099894680916e-01
2.182082148773194064e+00,1.998512425070702037e+00,3.765768383093459071e-01
2.371180041931642002e+00,1.631465155580099857e+00,3.982940634050657347e-01
1.300138429853163968e+00,1.737559381497089772e+00,3.598410597778218811e-01
2.518827981083517020e+00,2.188090428388984598e+00,3.791898975555929585e-01
2.080455185669509266e+00,2.744667338783767008e+00,3.950381368257374071e-01
2.172916596051253535e+00,-4.898546453863090733e-01,3.310147442895673975e-01
2.022800414796947166e+00,1.307329886863875856e+00,3.905831152742695322e-01
2.982877802096427722e+00,8.303570553570782664e-01,3.415231563809635329e-01
2.111246945252868823e+00,2.580254004902687193e+00,3.982970244973333407e-01
2.115409624024041868e+00,2.578685791473546374e+00,4.061150213276005783e-01
1.534991800096046077e+00,1.965959787240398882e-01,3.584987373616549955e-01
2.105613310709997243e+00,2.591989458133009627e+00,3.935174322548580794e-01
2.083859790724470251e+00,2.546810787939072007e+00,4.050499434186357606e-01
2.075935677267350066e+00,2.538753057073080299e+00,3.953237661543841930e-01
2.119730346345405358e+00,2.549934688636403379e+00,3.861645182036633206e-01
2.103137024330935745e+00,1.448246029366595522e+00,4.103736812815786950e-01
2.119367074141620400e+00,1.464359763506534406e+00,4.009793849813764743e-01
2.085471495651551876e+00,1.479421891179123705e+00,3.905104346186277775e-01
2.137204331576480598e+00,1.378620716856612916e+00,3.959268986154271808e-01
2.129147721093850087e+00,1.422577469072265899e+00,3.960699231527479158e-01
2.130977931310614970e+00,1.466582792394159895e+00,3.944879734841590935e-01
2.064132204916688806e+00,2.509988648320736537e+00,3.951647185061971101e-01
2.084105150080794111e+00,1.465397629605028840e+00,4.074148447617358948e-01
2.086538815075015485e+00,1.537770868219464404e+00,3.858173890125181638e-01
1.602459563010695476e+00,2.585700089545516889e+00,3.716748674101583716e-01
2.181771937188829114e+00,2.655488538403090182e+00,3.878716401604593855e-01
1.543948144344381435e+00,1.322450154814887924e+00,3.886761908672592969e-01
2.254421835621790660e+00,8.326185839761843788e-01,3.825541238764896823e-01
2.016244279640792669e+00,1.400136052603069281e+00,4.010454976301662811e-01
2.001215388622035185e+00,1.397014791240644094e+00,3.813274786822769546e-01
2.150713787633829810e+00,2.406446209429939920e+00,3.813713330274307589e-01
1.818585848702980456e+00,1.846330514832203562e+00,4.014368772576362154e-01
2.045434198929726222e+00,1.775664554663758388e+00,3.744667570619870656e-01
1.555671401760356343e+00,2.071380222866858301e+00,3.917856835504416879e-01
1.643187296489116100e+00,1.660290458251076018e+00,3.910470651725643232e-01
2.456191131838806108e+00,1.865238107315602356e+00,3.749644581723967640e-01
2.028676728468610690e+00,1.018610590500471424e+00,4.058574672215161661e-01
1.927043290060158398e+00,6.650814134530458333e-01,3.637992395372890986e-01
2.868948591845464691e+00,2.590698092644504236e+00,3.685517987101326609e-01
2.240705712849933917e+00,3.008194877774515774e+00,3.836621791079730115e-01
2.671128676894922727e+00,1.351266814674176864e+00,3.791320554290149580e-01
1.346710832511198497e+00,9.608975476714558539e-01,3.794379291917440167e-01
1.850724948366596401e+00,2.451855573938221511e+00,4.018489843023955177e-01
2.561244221196689708e+00,2.906028297425784501e+00,3.683472925224137162e-01
1.826488658338346838e+00,2.849769507095727405e+00,3.774378104710035542e-01
2.565938201467288238e+00,9.619403854482957428e-01,3.720998174440066086e-01
1.247250652699437801e+00,2.253506055949595854e+00,3.809348347414323599e-01
2.041009725306834000e+00,3.441614107055752214e+00,3.777151269227921326e-01
1.607562317460292434e+00,3.648946341538740867e+00,3.470556677968047454e-01
1.321690902783906996e+00,5.868529905390816870e-01,3.506973166720829260e-01
1.223990210002390278e+00,1.295087791316944958e+00,3.567875182733649675e-01
1.755040444125955279e+00,1.128439551765383575e+00,3.864703886773374064e-01
1.292326019055476838e+00,2.982913753638307242e+00,3.787100919378888486e-01
1.104788497209474585e+00,3.362785037501858199e+00,3.470593088417960881e-01
1.254206891976402005e+00,2.616252756583797634e+00,3.358990222153143135e-01
1.975884959071264824e+00,5.917542710615286694e-02,3.563835593390054512e-01
2.045129803749326847e+00,2.267281373069933714e+00,4.056333430316400035e-01
2.205150952675792198e+00,1.070614766260737483e+00,3.815915492174753454e-01
2.575430796243011855e+00,4.951850662396326541e-01,3.704013613340922939e-01
1.593553238185711152e+00,2.305416456949123116e+00,3.954572231885329914e-01
2.018821965127468587e+00,3.130513978414397158e+00,3.993537169890673533e-01
2.854235396385963242e+00,2.255744712735317847e+00,3.724323220081063313e-01
8.927014315337897798e-01,1.980394850095143155e+00,3.302685769497955559e-01
2.462665186393452110e+00,1.431843109319278717e+00,3.800024914850624880e-01
2.227777415461801525e+00,3.272036446415306443e+00,4.039065474621847951e-01
2.281276734929907235e+00,2.223521642756508321e+00,3.992978295779771036e-01
2.468129483664450952e+00,9.002148310241153695e-02,3.568923318874276385e-01
2.634405328874067642e+00,2.440597938885376905e+00,3.804491760100675024e-01
1.645598362591283781e+00,1.880991005245517655e+00,4.042822350287089139e-01
2.263329709166551851e+00,1.786946528659273170e+00,4.210899956240339859e-01
3.304352138977495912e+00,2.282276132157610604e+00,3.312547643530290853e-01
1.944826437119879792e+00,2.634583172833760756e+00,3.844901907135143682e-01
1.913167697168089099e+00,9.391441014847590196e-01,3.796716383505387982e-01
1.539216323115400797e+00,1.073645521838367145e+00,3.614748137088675817e-01
1.696847478420232314e+00,1.444101864677280744e+00,3.901489702559406969e-01
1.946465102470722464e+00,2.351529169765599114e+00,4.031650832299406573e-01
1.729073593149280441e+00,2.004674021284291285e+00,4.094760300512226281e-01
3.045474161702067306e+00,1.376486819129084438e+00,3.523837346672452076e-01
2.310976156752087896e+00,1.804680833220816183e+00,4.048548938585152523e-01
2.239315922791832669e+00,1.710977490368693843e+00,4.035229189359668123e-01
