# y, x, target
4.905342349687893844e+00,-3.751117308682019313e+00,4.919781249452683143e-03
1.859804229164073952e+00,-1.136417343536223257e+00,1.170878274383356649e-01
-4.198860879580471384e+00,-1.388806239387144537e+00,6.562846718557613368e-02
-5.000000000000000000e+00,5.000000000000000000e+00,2.808440800612239940e-02
1.852695522476371259e+00,-1.129404579596453573e+00,1.177284238123641191e-01
5.000000000000000000e+00,5.000000000000000000e+00,9.802421569821036240e-02
2.399003124344899263e+00,2.366867320639337358e+00,3.913747300407540708e-01
1.517950123201784685e+00,3.051869460409715185e+00,3.458133773768882757e-01
1.256624897208741043e+00,1.604639974554694870e+00,3.855483612974129892e-01
4.028629891059427592e+00,1.369820389075633082e+00,3.346949109628449270e-01
-9.755303220225617356e-01,1.984554134943118386e+00,3.034151615575171879e-01
2.473708787555624511e+00,1.434385495559645562e+00,3.816340777548767327e-01
1.851380203882064812e+00,2.010773526426650193e+00,3.997182944040786889e-01
1.950806016075100402e+00,1.995021095777472553e+00,3.999685809612296139e-01
1.960347089347671323e+00,2.014594916551692094e+00,3.999697582961929676e-01
1.976012732757148171e+00,1.997074835180367103e+00,3.999924425252831539e-01
2.002929381938995057e+00,1.994371357634538100e+00,3.999983655341075584e-01
2.060489961302769402e+00,1.992310276012386971e+00,3.999513538986128602e-01
2.298136059168784939e+00,2.010938156202618288e+00,3.988845278856267274e-01
1.936800814688540484e+00,1.983553287436818691e+00,3.999366308149935878e-01
1.894341649244784875e+00,1.999874114368703104e+00,3.998605628859069339e-01
1.887709123209933004e+00,2.006423683704950278e+00,3.998404385619552803e-01
2.237352137290158360e+00,1.997588930382554473e+00,3.992961502685195008e-01
1.898161564029661186e+00,1.987529868543313150e+00,3.998626984727068345e-01
1.939590990017373784e+00,1.984835134340451113e+00,3.999429657940770655e-01
2.242949165202484885e+00,1.996354207684597704e+00,3.992622339251588603e-01
1.895611745952590077e+00,2.002927018998597930e+00,3.998634675928638416e-01
1.945446239768727992e+00,1.979152515663540335e+00,3.999411479971292094e-01
2.120810030226913057e+00,1.987439861085271708e+00,3.998097553506047563e-01
1.890054849376937796e+00,1.996275412498427215e+00,3.998483240924218252e-01
2.232574784461563766e+00,2.009541254495539775e+00,3.993199099800597285e-01
1.906042860974819675e+00,1.986955765772123073e+00,3.998812466928666765e-01
1.902821403077759932e+00,1.996627984900168684e+00,3.998814867941639650e-01
2.127141405913613781e+00,1.981389167349142610e+00,3.997807164323977647e-01
1.881872766390573659e+00,1.995660549732576783e+00,3.998247625483642986e-01
2.207599743607318032e+00,1.996163288210777154e+00,3.994609312900688769e-01
1.948913920620025442e+00,1.978923837904270622e+00,3.999452461652684976e-01
1.888567304436918448e+00,2.000332777340501522e+00,3.998448962147358454e-01
2.160005578258362036e+00,1.989786429356755981e+00,3.996749245356275848e-01
1.905792161527209316e+00,1.992455288810150549e+00,3.998863152437669433e-01
2.151527281202136876e+00,1.991561621329390519e+00,3.997095701195754192e-01
1.881596775491347628e+00,2.002548769877910750e+00,3.998245609798841138e-01
2.068328565600110025e+00,1.961758329103103549e+00,3.998685901609760340e-01
1.968629063376546640e+00,1.968610230845440512e+00,3.999385094149880970e-01
2.186451672121991763e+00,1.996697539827314571e+00,3.995651649939268024e-01
1.863831964751058834e+00,2.016589667699250299e+00,3.997546327451333981e-01
1.985535338953155815e+00,1.944815324893274244e+00,3.998452214574771402e-01
2.187295649881491499e+00,2.005114502736784488e+00,3.995604636412887767e-01
1.906159912379155053e+00,2.009152071326831823e+00,3.998858323765779876e-01
1.993069254739999963e+00,1.943737426725359541e+00,3.998412295825201634e-01
1.866103567348121217e+00,2.000271031601599248e+00,3.997760510809382217e-01
2.163563370231789129e+00,1.994554869919872075e+00,3.996642758149637209e-01
2.016642623538071000e+00,1.941604908927829776e+00,3.998261426508942784e-01
