# y, x, target
4.823746194224797890e+00,-2.445427051599366131e+00,2.636569238760590184e-02
1.715877679460742655e+00,-4.564385668409186358e+00,1.845501722309331530e-03
-2.020661703223488814e+00,-1.858052503524411314e+00,5.324339202173010710e-01
-5.000000000000000000e+00,5.000000000000000000e+00,2.808440800612239940e-02
-2.029468438841718125e+00,-1.856997614243177885e+00,5.322053687348469175e-01
-5.000000000000000000e+00,-5.000000000000000000e+00,2.509361546884271042e-04
-1.814764683440581949e+00,-1.742115468098304754e-01,2.334070457964041445e-01
-2.004894694737026750e+00,-2.746268687183630153e+00,3.929733340938427744e-01
-3.104553163972239904e+00,-1.703098537855191941e+00,2.918716340629494699e-01
-1.163014896433407275e+00,-1.839991436125463231e+00,3.940901536595401433e-01
5.000000000000000000e+00,5.000000000000000000e+00,9.802421569821036240e-02
-1.919183436013923716e+00,-1.405034030693541602e+00,4.756283846267810866e-01
-1.752898411828307523e+00,-2.066239142285173358e+00,5.165106671193134824e-01
-2.134423071502168145e+00,-2.126771671000842634e+00,5.194341251013619987e-01
3.755205028167957204e-01,5.000000000000000000e+00,1.195814669580712725e-01
-1.860225723363234884e+00,-1.850502967920621966e+00,5.289875349929256121e-01
-1.969665421243667058e+00,-1.972260313906490259e+00,5.335880427090892164e-01
-1.977737115403634283e+00,-1.966940591918085346e+00,5.337248549507015438e-01
-1.990505570483400710e+00,-1.945991314197490496e+00,5.339744720398572619e-01
-1.961724268855580267e+00,-1.932117290290071843e+00,5.339400970211288788e-01
-1.977468269261292377e+00,-1.922500751792349583e+00,5.340270818582975032e-01
-2.033109677069679933e+00,-1.901661937131002400e+00,5.331992391934775588e-01
-1.959784326628976281e+00,-1.961148696825483206e+00,5.336903488127086037e-01
-1.970761664814144609e+00,-1.950875158203750903e+00,5.339124793118422696e-01
-1.970874561812701042e+00,-1.947839520194144747e+00,5.339406583069998824e-01
-2.045182349748648765e+00,-1.891656549496869566e+00,5.326917654109899480e-01
-1.968117288893076466e+00,-1.937358306266128150e+00,5.339843083090646259e-01
-1.964848260885225795e+00,-1.963211308007521971e+00,5.337111039320631134e-01
-1.970177434877703249e+00,-1.921486982514833741e+00,5.339927109882008915e-01
-1.968262503554346843e+00,-1.939096097059398449e+00,5.339786861889798120e-01
-2.028322767425987383e+00,-1.914532725444643368e+00,5.334554003339863071e-01
-1.972586473329924761e+00,-1.951597536390131671e+00,5.339153787626690351e-01
-1.937411464791714000e+00,-1.906763160427749959e+00,5.334240637835538923e-01
-1.977990904966965502e+00,-1.965532154980198509e+00,5.337494341979613921e-01
-1.962651993993231647e+00,-1.913630754694362057e+00,5.338877210612664737e-01
-2.043637357560351919e+00,-1.901206975150318446e+00,5.328967425567420202e-01
-1.988652577957549461e+00,-1.969149781618106942e+00,5.336846936951529230e-01
-1.965991402040448754e+00,-1.923736549975926025e+00,5.339711542014715651e-01
-1.947008596657958890e+00,-1.918933485936270777e+00,5.337091829472415672e-01
-1.980218225428049816e+00,-1.968823857284400791e+00,5.336964429147715849e-01
-2.002841725087671776e+00,-1.901678906695671856e+00,5.337439185883195991e-01
-1.955718008230689087e+00,-1.928550406107559567e+00,5.338700971960436137e-01
-2.018866411518938975e+00,-1.916403734645045986e+00,5.336647009598390889e-01
-1.955993910589817197e+00,-1.915007041421144862e+00,5.338224689113588717e-01
-1.991506247632043092e+00,-1.954913326148380648e+00,5.338864849102356036e-01
-1.968127537682844430e+00,-1.945092723294283843e+00,5.339437989405539930e-01
-1.948451153670701430e+00,-1.910570138920506533e+00,5.336753360208487118e-01
-1.983317572885233915e+00,-1.956921774958360061e+00,5.338810938886356938e-01
-2.010656599697375757e+00,-1.904908826368065800e+00,5.336888647519218987e-01
-1.976913941456535095e+00,-1.964508663678054212e+00,5.337632577910800258e-01
-1.950667102926621155e+00,-1.909501074838759749e+00,5.337011915061482537e-01
-2.008501051713839303e+00,-1.916116161394452178e+00,5.338258087541887242e-01
-2.028230521369185357e+00,-1.903635609125227113e+00,5.333442584345796655e-01
