# y, x, target
2.234826064657831068e-01,-2.729934474949570422e+00,5.445488474071684404e-02
-1.605500974683450544e+00,3.450985306800545160e+00,2.048047086811793649e-01
-2.112388456664766601e+00,-4.021243814915034243e+00,6.696716508475014651e-02
-5.000000000000000000e+00,5.000000000000000000e+00,2.808440800612239940e-02
-1.605491002102641840e+00,3.450986961113664986e+00,2.048050460251777949e-01
-1.599694595669992614e+00,3.451270438687632502e+00,2.050514283719355735e-01
-1.042674891106124768e+00,3.503047578378108540e+00,2.258254742367667434e-01
3.371898526923038375e+00,5.000000000000000000e+00,1.224433835568137091e-01
-2.921405843937208147e-02,2.931587359183243535e+00,3.155463032405745327e-01
5.138447085875199605e-01,2.323968220612683488e+00,3.684590536499239843e-01
1.137466602421801642e+00,1.698750779226422258e+00,3.864033895583837142e-01
2.772231283653230349e-01,1.258917824378111838e+00,3.405657437240811602e-01
1.662601200953527147e+00,2.056968490243815673e+00,3.984180552181327273e-01
5.000000000000000000e+00,5.705841504950323051e-01,2.338806256182151266e-01
1.881197281724120707e+00,2.016059377448583767e+00,3.998108078024263379e-01
5.000000000000000000e+00,-5.000000000000000000e+00,6.604819701286463417e-04
1.870048968148164903e+00,2.053147449955403658e+00,3.996479074168169943e-01
-5.000000000000000000e+00,-5.523243029559317119e-01,4.026584388243383689e-02
1.978077262447809126e+00,1.890296944508923715e+00,3.993928105270524997e-01
1.790364044105162478e+00,2.090495494699951884e+00,3.990424243689027484e-01
1.872267188382481962e+00,1.950897435549715730e+00,3.996757456877164660e-01
1.796055556475758763e+00,2.046453995216317878e+00,3.993727804070293375e-01
1.845294232265509038e+00,1.968511969932004391e+00,3.996515207835814598e-01
1.802342323794117185e+00,2.051395323807835069e+00,3.993801489121441839e-01
1.923186539327206290e+00,1.902239685815251491e+00,3.994488846110720859e-01
1.811625141466359779e+00,2.048551549961876717e+00,3.994390641647291851e-01
1.845044769965711318e+00,1.915673665396713687e+00,3.993449958037478820e-01
1.800957697889621123e+00,2.063673747184057383e+00,3.993027628768039961e-01
1.850415986075338637e+00,1.920501412866365776e+00,3.994048885308176255e-01
1.792742007846626962e+00,2.052473182134841423e+00,3.993260505332512089e-01
1.849356834321428167e+00,1.913221850718814565e+00,3.993404983756638216e-01
1.833942201941395567e+00,2.054374683690535441e+00,3.995078695054852247e-01
2.004767663633586494e+00,1.979202533203179293e+00,3.999781497160755372e-01
2.019228780250607258e+00,2.015810827516678394e+00,3.999829283219791254e-01
1.906269794234455972e+00,2.087632530174067469e+00,3.995065719337316246e-01
1.940198691180380131e+00,1.904897619305977230e+00,3.995034868430358821e-01
1.842014918331607909e+00,2.058230447833348187e+00,3.995188420736470181e-01
1.923612773839304069e+00,1.894059681636925063e+00,3.993665128777691420e-01
1.987368012621699265e+00,2.045014966587918259e+00,3.998967507683375278e-01
1.846376774300347634e+00,2.066567500526195644e+00,3.994838491995275076e-01
2.024227228379937849e+00,2.004693278555484071e+00,3.999916118689567091e-01
1.917912702485532250e+00,1.933762737459277403e+00,3.996966186592431081e-01
1.942409155788129560e+00,2.053857330603483078e+00,3.998136109833483887e-01
1.858945054078080972e+00,2.050098664575480178e+00,3.996260550029235303e-01
1.896746250520685351e+00,1.913595731312637049e+00,3.994938880827554883e-01
1.842488019614526351e+00,2.038010369811390277e+00,3.996179075529868729e-01
2.044007847334943229e+00,2.028135078285341564e+00,3.999362594271710925e-01
1.925228958790129674e+00,1.916970989827176730e+00,3.995857451992198550e-01
1.856992439767060077e+00,2.056539012656998011e+00,3.995848217549941017e-01
2.013703233200015319e+00,2.018408498740942747e+00,3.999807590634449905e-01
1.854632106094316057e+00,2.045039420806423536e+00,3.996346748111808678e-01
2.013903960276323346e+00,1.981979648979197428e+00,3.999814044679002589e-01
1.916247521409113475e+00,1.932776531904043082e+00,3.996865945545305387e-01
