# y, x, target
-1.625129887759531933e+00,2.563686274767974282e+00,2.549653592900372190e-01
8.210821073310903273e-01,4.359243569062712709e+00,1.910008806448015573e-01
-2.815473455925983082e+00,-1.202814642295079395e+00,3.147192054815186046e-01
-4.996379227434720960e+00,-4.960367620401267885e+00,2.733018984120949265e-04
5.000000000000000000e+00,-2.631614745267763400e+00,2.067101864880290657e-02
-3.228543782537092621e+00,2.904415264383909401e-01,1.351988128311063520e-01
-2.805968310212271000e+00,-1.194292073853129521e+00,3.154703638668724941e-01
-2.356249021901979379e+00,-1.347750409787905612e+00,4.338036373832109827e-01
-1.993552069556022266e+00,-1.470220419726605332e+00,4.884598357042087557e-01
-1.049326804790136292e+00,-1.092060688200041429e+00,3.012617339640295544e-01
-1.986786746708236961e+00,-1.928460455223790726e+00,5.340414883098502097e-01
-1.675818998278570726e+00,-2.714364633862688336e+00,3.838645196011213900e-01
-2.232281593181623336e+00,-2.008564697215848849e+00,5.173391606398342057e-01
-5.000000000000000000e+00,5.000000000000000000e+00,2.808440800612239940e-02
5.000000000000000000e+00,5.000000000000000000e+00,9.802421569821036240e-02
-2.021468040678740863e+00,-1.880764841683944866e+00,5.330720217987900966e-01
-1.960469140361801088e+00,-1.939237934409474562e+00,5.339075125953601786e-01
-1.996923242904706797e+00,-1.891754070080927441e+00,5.336391087204527262e-01
-1.965235911050916329e+00,-1.898638633478841875e+00,5.337429261039339234e-01
8.641399310790246480e-01,-5.000000000000000000e+00,9.323212423202162542e-04
-1.954507394529276798e+00,-1.907943706036154818e+00,5.337418886662272932e-01
-1.982187931974986661e+00,-1.973518504380018523e+00,5.336077023924199469e-01
-1.985611692970930875e+00,-1.936123713735917740e+00,5.340370800545209962e-01
-2.001643942376405416e+00,-1.913949774822814032e+00,5.338882873346065816e-01
-1.951941366975280534e+00,-1.901536052149578104e+00,5.336301575599138314e-01
1.553865821822535409e+00,1.329656866125142667e+00,3.758101557236069867e-01
3.385600852275276296e+00,1.475956136955995923e+00,3.639950427210736916e-01
2.381569143590029469e+00,-6.312226823239797113e-02,2.338962693735540943e-01
2.397186225051905595e+00,2.581141630955558597e+00,3.815793969748459413e-01
3.586468536235525306e-01,2.119758244011844539e+00,3.670508681515569083e-01
-1.997069183978160467e+00,-1.896530310304305189e+00,5.337197730678649998e-01
4.998749404799537999e+00,2.005041415075682565e+00,3.020056747768652960e-01
-1.980518277255554072e+00,-1.909420784162053408e+00,5.339435475883299587e-01
-2.000886750641362788e+00,-1.926542428642853189e+00,5.339576645843815417e-01
-1.995493463723028160e+00,-1.918613190129497603e+00,5.339703502616446329e-01
-1.978735955683994518e+00,-1.926303315630063295e+00,5.340402509726381863e-01
-1.985460117584740836e+00,-1.896848074026276088e+00,5.337799101725074769e-01
-1.996270666653527037e+00,-1.908088854509660592e+00,5.338794552544450234e-01
-1.956127989640856768e+00,-1.920098307805853111e+00,5.338535819897851642e-01
-1.984651219186781557e+00,-1.941599301780672082e+00,5.340165734226357541e-01
-1.985077022280301584e+00,-1.949793853962185963e+00,5.339570677791136699e-01
-2.002677151167163494e+00,-1.881559545487153429e+00,5.333765443758018421e-01
-1.953482809695290534e+00,-1.938685371362280918e+00,5.338209323000120410e-01
-2.006253579366924278e+00,-1.910597956864105385e+00,5.338087792315050484e-01
-1.963404364617331588e+00,-1.914866111908924751e+00,5.339039775913889674e-01
-1.992263860146566756e+00,-1.929595106080199685e+00,5.340226620312270578e-01
-1.975381386565204789e+00,-1.923564725958154753e+00,5.340246675449195068e-01
-1.988916829308941203e+00,-1.952773389100990187e+00,5.339196392201364105e-01
-1.962311290328171420e+00,-1.919827708080811490e+00,5.339229529974667265e-01
-2.007531336610846040e+00,-1.889345574958088747e+00,5.334849843897224719e-01
-1.972697673132577378e+00,-1.934018952987897055e+00,5.340205669960423895e-01
-1.990193270269519310e+00,-1.921171153537604148e+00,5.340114096094169538e-01
-1.974606932753281363e+00,-1.913854128522306297e+00,5.339692960965513047e-01
